…
We skip this step since we used .csv files with channel values exported
from FlowJo, which incorporates axis scaling that we toggled with in
FlowJo. See this link as a great resource for explanation:

<https://wiki.centenary.org.au/display/SPECTRE/Data+transformation>
<https://wiki.centenary.org.au/display/SPECTRE/Exporting+data+from+FlowJo+for+analysis+in+Spectre>

## Add metadata to cell dataframe

``` r
meta.dat <- read_excel("/home/Jayne.Wiarda/NG10/Dissertation/TIEL_FC/NG10_MetaData_FC.xlsx") # read in meta data
meta.dat # look at meta data... if you don't want to include all metadata columns, subset before next step
```

    ## # A tibble: 48 × 5
    ##    FileName                                     Batch WeeksOfAge Tissue AnimalID
    ##    <chr>                                        <chr>      <dbl> <chr>  <chr>   
    ##  1 1ce_E3_E03_003_CD3e+_CD3EposOnly_ChannelVal… A              5 cecum  1       
    ##  2 1il_E2_E02_002_CD3e+_CD3EposOnly_ChannelVal… A              5 ileum  1       
    ##  3 1jej_E1_E01_001_CD3e+_CD3EposOnly_ChannelVa… A              5 jejun… 1       
    ##  4 5ce_E9_E09_009_CD3e+_CD3EposOnly_ChannelVal… A              5 cecum  5       
    ##  5 5il_E8_E08_008_CD3e+_CD3EposOnly_ChannelVal… A              5 ileum  5       
    ##  6 5jej_E7_E07_007_CD3e+_CD3EposOnly_ChannelVa… A              5 jejun… 5       
    ##  7 9ce_E3_E03_003_CD3e+_CD3EposOnly_ChannelVal… B              5 cecum  9       
    ##  8 9il_E2_E02_002_CD3e+_CD3EposOnly_ChannelVal… B              5 ileum  9       
    ##  9 9jej_E1_E01_001_CD3e+_CD3EposOnly_ChannelVa… B              5 jejun… 9       
    ## 10 13ce_E9_E09_009_CD3e+_CD3EposOnly_ChannelVa… B              5 cecum  13      
    ## # … with 38 more rows
…
